-------------------------------------------------------------------------------
Test set: com.thanchanok.week5.SelectionSortAppTest
-------------------------------------------------------------------------------
Tests run: 7, Failures: 0, Errors: 0, Skipped: 0, Time elapsed: 0 s - in com.thanchanok.week5.SelectionSortAppTest
